{
  "project_info": {
    "project_number": "624168779989",
    "firebase_url": "https://veritas-a8bb1.firebaseio.com",
    "project_id": "veritas-a8bb1",
    "storage_bucket": "veritas-a8bb1.appspot.com"
  },
  "client": [
    {
      "client_info": {
        "mobilesdk_app_id": "1:624168779989:android:34b3e7a1b8d77296",
        "android_client_info": {
          "package_name": "com.veritas"
        }
      },
      "oauth_client": [
        {
          "client_id": "624168779989-75ku78f26ptvp694omh3fn27s9n9t9e1.apps.googleusercontent.com",
          "client_type": 3
        }
      ],
      "api_key": [
        {
          "current_key": "AIzaSyDS8dxMtGV570LGrFcBlcg4dBRlh10eI98"
        }
      ],
      "services": {
        "analytics_service": {
          "status": 1
        },
        "appinvite_service": {
          "status": 1,
          "other_platform_oauth_client": []
        },
        "ads_service": {
          "status": 2
        }
      }
    }
  ],
  "configuration_version": "1"
}